{
    "basename": "asr-global_scope5-a66d166",
    "cmd": "lfortran --show-asr --no-color {infile} -o {outfile}",
    "infile": "tests/global_scope5.f90",
    "infile_hash": "63e512d3fe5d83aa6195002b9c31ddc77e1a93ac37df38989f782ed7",
    "outfile": null,
    "outfile_hash": null,
    "stdout": "asr-global_scope5-a66d166.stdout",
    "stdout_hash": "0cc41401975cad7364f31302164b4354b2831404d8d4e1c05ff68967",
    "stderr": null,
    "stderr_hash": null,
    "returncode": 0
}