{
    "basename": "asr-expr3-99b2959",
    "cmd": "lfortran --show-asr --no-color {infile} -o {outfile}",
    "infile": "tests/expr3.f90",
    "infile_hash": "a517eaea31a1369bd05123b7a3553245b6a1e560bee961b85fef4a9a",
    "outfile": null,
    "outfile_hash": null,
    "stdout": "asr-expr3-99b2959.stdout",
    "stdout_hash": "c36d5afa9518675feadebd0ef2d6483e9c9227d5d6a5aa4e64b00907",
    "stderr": null,
    "stderr_hash": null,
    "returncode": 0
}