{
    "basename": "asr-types_06-58f9b18",
    "cmd": "lfortran --show-asr --no-color {infile} -o {outfile}",
    "infile": "tests/../integration_tests/types_06.f90",
    "infile_hash": "821a3f29390ed022c7e72bdf2e4f9bace059d335abe1d1b729ac6d22",
    "outfile": null,
    "outfile_hash": null,
    "stdout": "asr-types_06-58f9b18.stdout",
    "stdout_hash": "85f56f453172f837e04e26aaa760a36ded5bc150782fbd2b5ec65348",
    "stderr": null,
    "stderr_hash": null,
    "returncode": 0
}