{
    "basename": "asr-interface_01-9dc98da",
    "cmd": "lfortran --show-asr --no-color {infile} -o {outfile}",
    "infile": "tests/../integration_tests/interface_01.f90",
    "infile_hash": "fc4522469f3b6ff802e3198f034497a8c7b11b5ec051dc93d62b9ab5",
    "outfile": null,
    "outfile_hash": null,
    "stdout": "asr-interface_01-9dc98da.stdout",
    "stdout_hash": "6ce2c55c65403b6755d97a964d2ee87f8f74452230038c4a9a65f500",
    "stderr": null,
    "stderr_hash": null,
    "returncode": 0
}