{
    "basename": "asr-program1-17e5471",
    "cmd": "lfortran --show-asr --no-color {infile} -o {outfile}",
    "infile": "tests/program1.f90",
    "infile_hash": "ec4ccdfed01d45648718ca57a9ceb3e5aa82e55e57d8906636902e7b",
    "outfile": null,
    "outfile_hash": null,
    "stdout": "asr-program1-17e5471.stdout",
    "stdout_hash": "02cb9c63c817cf478266df7b9ba007d9ef446d4af2aa801417c6407e",
    "stderr": null,
    "stderr_hash": null,
    "returncode": 0
}