{
    "basename": "asr-associate_03-bc2b027",
    "cmd": "lfortran --show-asr --no-color {infile} -o {outfile}",
    "infile": "tests/../integration_tests/associate_03.f90",
    "infile_hash": "0857ba34ba2430fadd8ed229bd42009450944a6a6707d205cadd40e9",
    "outfile": null,
    "outfile_hash": null,
    "stdout": "asr-associate_03-bc2b027.stdout",
    "stdout_hash": "089f2620077f36bfb05a4898eb683fd2525eaaa446ded6757b74d3de",
    "stderr": null,
    "stderr_hash": null,
    "returncode": 0
}