{
    "basename": "asr-expr5-f0a7df6",
    "cmd": "lfortran --show-asr --no-color {infile} -o {outfile}",
    "infile": "tests/expr5.f90",
    "infile_hash": "030f3f956944c6d24d536fd1f434f877d95bf12aac6f367d2ad1827e",
    "outfile": null,
    "outfile_hash": null,
    "stdout": "asr-expr5-f0a7df6.stdout",
    "stdout_hash": "37d20a28cf4db800725aa56058837f225aecdac2e86327f700148eac",
    "stderr": null,
    "stderr_hash": null,
    "returncode": 0
}