{
    "basename": "asr-subroutine3-8086030",
    "cmd": "lfortran --show-asr --no-color {infile} -o {outfile}",
    "infile": "tests/subroutine3.f90",
    "infile_hash": "174874c0a5fad40d608acbafefcc0c06c96379cc136126d3f05b63e5",
    "outfile": null,
    "outfile_hash": null,
    "stdout": "asr-subroutine3-8086030.stdout",
    "stdout_hash": "7bf40f7094c1c3468f40407b0db9fb08917e3d8c068b6e358f791d3b",
    "stderr": null,
    "stderr_hash": null,
    "returncode": 0
}