{
    "basename": "asr-arrays_04-d832d79",
    "cmd": "lfortran --show-asr --no-color {infile} -o {outfile}",
    "infile": "tests/../integration_tests/arrays_04.f90",
    "infile_hash": "d2d40bc4ffd8f6e20e442d0d5b59cdb7e887001405a8f120addf04ab",
    "outfile": null,
    "outfile_hash": null,
    "stdout": "asr-arrays_04-d832d79.stdout",
    "stdout_hash": "9ece4df2bb04d7f3bcd6f6a34b6ef1ad9855f7b53563803353ecb649",
    "stderr": null,
    "stderr_hash": null,
    "returncode": 0
}