{
    "basename": "ast-types_09-e7605c9",
    "cmd": "lfortran --show-ast --no-color {infile} -o {outfile}",
    "infile": "tests/../integration_tests/types_09.f90",
    "infile_hash": "d024acd0f0ba0e3911593f1d74682c2eb3d98ab4ad6712d1770028b2",
    "outfile": null,
    "outfile_hash": null,
    "stdout": "ast-types_09-e7605c9.stdout",
    "stdout_hash": "6aa7503c674979d36ee86a540e6e4aa8f550a2bfc82e0d2f20c6da14",
    "stderr": null,
    "stderr_hash": null,
    "returncode": 0
}