{
    "basename": "ast-modules_02-dc19c13",
    "cmd": "lfortran --show-ast --no-color {infile} -o {outfile}",
    "infile": "tests/modules_02.f90",
    "infile_hash": "ca174c023f6a46f31eb8ac10ec968019baffb0a012c5211dc6e65ec4",
    "outfile": null,
    "outfile_hash": null,
    "stdout": "ast-modules_02-dc19c13.stdout",
    "stdout_hash": "1fa00afd39d2d662765a0ba513da83e468da7624ffdc55ea48e1b2ed",
    "stderr": null,
    "stderr_hash": null,
    "returncode": 0
}