{
    "basename": "ast-derived_types_03-268a4a4",
    "cmd": "lfortran --show-ast --no-color {infile} -o {outfile}",
    "infile": "tests/../integration_tests/derived_types_03.f90",
    "infile_hash": "fd0a87db249f310cd20a90b39d5eb4627597acf774b62bdb8c4256c4",
    "outfile": null,
    "outfile_hash": null,
    "stdout": "ast-derived_types_03-268a4a4.stdout",
    "stdout_hash": "f80c1c24fe7591e217a57f326dd54b803e5a89970ebfdeeb6388d8b6",
    "stderr": null,
    "stderr_hash": null,
    "returncode": 0
}