{
    "basename": "ast-arrays_02-bc13aa6",
    "cmd": "lfortran --show-ast --no-color {infile} -o {outfile}",
    "infile": "tests/../integration_tests/arrays_02.f90",
    "infile_hash": "b5b3a6833fd727f5cce92c3c4886c4e20117f33710a1ec8b1016d8f6",
    "outfile": null,
    "outfile_hash": null,
    "stdout": "ast-arrays_02-bc13aa6.stdout",
    "stdout_hash": "f4d5d6e506c9f9dd76d655163db9a1ccdf7cfaa292eea6b7a2156135",
    "stderr": null,
    "stderr_hash": null,
    "returncode": 0
}