{
    "basename": "ast-string2-eb4e1df",
    "cmd": "lfortran --show-ast --no-color {infile} -o {outfile}",
    "infile": "tests/../integration_tests/string2.f90",
    "infile_hash": "67e62ae7792aa7e1f4cd92144e9f32c4f30077627c8d110cc6c46c99",
    "outfile": null,
    "outfile_hash": null,
    "stdout": "ast-string2-eb4e1df.stdout",
    "stdout_hash": "5e22e21983bc0f3595d489a1654987f0f752865650af20f1b5690a11",
    "stderr": null,
    "stderr_hash": null,
    "returncode": 0
}