{
    "basename": "ast-modules_05-c35e0ac",
    "cmd": "lfortran --show-ast --no-color {infile} -o {outfile}",
    "infile": "tests/../integration_tests/modules_05.f90",
    "infile_hash": "eaea53640868ce2121656fd7b87e06fe464e05c8e9a0cf731a7a1dd9",
    "outfile": null,
    "outfile_hash": null,
    "stdout": "ast-modules_05-c35e0ac.stdout",
    "stdout_hash": "82fab542de7f76f3b3f7ea9efc02234310c6e4380ed351da7193d2b6",
    "stderr": null,
    "stderr_hash": null,
    "returncode": 0
}