{
    "basename": "ast-forallloop_01-d1e2bfa",
    "cmd": "lfortran --show-ast --no-color {infile} -o {outfile}",
    "infile": "tests/../integration_tests/forallloop_01.f90",
    "infile_hash": "d81387102a9ff31c123a828e4ead234d6971d67bca291dc5e40dc418",
    "outfile": null,
    "outfile_hash": null,
    "stdout": "ast-forallloop_01-d1e2bfa.stdout",
    "stdout_hash": "5fd2a157bdcd2cbcd0a74372731e962206ab7fe442f3141c434bd866",
    "stderr": null,
    "stderr_hash": null,
    "returncode": 0
}