{
    "basename": "ast-do_concurrent_reduce3-9c6ccff",
    "cmd": "lfortran --show-ast --no-color {infile} -o {outfile}",
    "infile": "tests/do_concurrent_reduce3.f90",
    "infile_hash": "68244c7ec55a2abd3a98afa53cf637130918461cb0264902730a72b3",
    "outfile": null,
    "outfile_hash": null,
    "stdout": "ast-do_concurrent_reduce3-9c6ccff.stdout",
    "stdout_hash": "ceeb8735b9d8a3ee221c9a4d870f616fcc83494ae8d16f11f86c7518",
    "stderr": null,
    "stderr_hash": null,
    "returncode": 0
}