{
    "basename": "ast-global_scope1-dd9aaaa",
    "cmd": "lfortran --show-ast --no-color {infile} -o {outfile}",
    "infile": "tests/global_scope1.f90",
    "infile_hash": "449b38487b6c79754deedb9991f1867bcf8c67d0d93019c2fe15854c",
    "outfile": null,
    "outfile_hash": null,
    "stdout": "ast-global_scope1-dd9aaaa.stdout",
    "stdout_hash": "d3d7ae97c57c137fb814ab46dda37d2c0722935b6b9d1684dcbd828e",
    "stderr": null,
    "stderr_hash": null,
    "returncode": 0
}