{
    "basename": "ast-interface2-98c9adf",
    "cmd": "lfortran --show-ast --no-color {infile} -o {outfile}",
    "infile": "tests/interface2.f90",
    "infile_hash": "708e539c3b559554e522379a3dd84fbbef89eb01ea66bf9ded4a5fcb",
    "outfile": null,
    "outfile_hash": null,
    "stdout": "ast-interface2-98c9adf.stdout",
    "stdout_hash": "60b57981ab27314e6185bfb04450cacfdb34685739ce911a937ebfb7",
    "stderr": null,
    "stderr_hash": null,
    "returncode": 0
}