{
    "basename": "ast-expr_05-c1f66bd",
    "cmd": "lfortran --show-ast --no-color {infile} -o {outfile}",
    "infile": "tests/../integration_tests/expr_05.f90",
    "infile_hash": "a228247df907b511e966db8650759089272b3a0289b51de4a8e2ee1d",
    "outfile": null,
    "outfile_hash": null,
    "stdout": "ast-expr_05-c1f66bd.stdout",
    "stdout_hash": "74322648d4bd531209fdb7c5b1bba943f98690df7ef158bca1feaa4e",
    "stderr": null,
    "stderr_hash": null,
    "returncode": 0
}