{
    "basename": "ast-complex_01-f07fa9a",
    "cmd": "lfortran --show-ast --no-color {infile} -o {outfile}",
    "infile": "tests/../integration_tests/complex_01.f90",
    "infile_hash": "e94aebc987a1655b49e1e31229a6c24ccdbed83af0ebf6a0fb4684f2",
    "outfile": null,
    "outfile_hash": null,
    "stdout": "ast-complex_01-f07fa9a.stdout",
    "stdout_hash": "f5c0caf7f1318e21778456567d296a81da4ce31a707c97f6a7bc73f7",
    "stderr": null,
    "stderr_hash": null,
    "returncode": 0
}