{
    "basename": "llvm-while_01-0263976",
    "cmd": "lfortran --show-llvm {infile} -o {outfile}",
    "infile": "tests/../integration_tests/while_01.f90",
    "infile_hash": "41dfb6c31552489d495806f20788fe3012284c0d6afbbc686d400c42",
    "outfile": null,
    "outfile_hash": null,
    "stdout": "llvm-while_01-0263976.stdout",
    "stdout_hash": "ed5121feef91b3e54f24f7cd0946c5e06deb25004fc573303effd952",
    "stderr": null,
    "stderr_hash": null,
    "returncode": 0
}