; ModuleID = 'LFortran'
source_filename = "LFortran"

define i32 @main() {
.entry:
  %i = alloca i32, align 4
  %r = alloca float, align 4
  store float 2.000000e+00, float* %r, align 4
  store float 2.000000e+00, float* %r, align 4
  store float 8.000000e+00, float* %r, align 4
  store float 4.000000e+00, float* %r, align 4
  store float 0.000000e+00, float* %r, align 4
  store float 5.000000e-01, float* %r, align 4
  store float 5.000000e-01, float* %r, align 4
  store i32 2, i32* %i, align 4
  store i32 2, i32* %i, align 4
  store i32 8, i32* %i, align 4
  store i32 4, i32* %i, align 4
  store i32 0, i32* %i, align 4
  store i32 0, i32* %i, align 4
  store i32 0, i32* %i, align 4
  ret i32 0
}

