{
    "basename": "llvm-logical4-551ceb9",
    "cmd": "lfortran --show-llvm {infile} -o {outfile}",
    "infile": "tests/../integration_tests/logical4.f90",
    "infile_hash": "b7d7e719c411795f29b9664e000f2530e011215d65991c8e2b477707",
    "outfile": null,
    "outfile_hash": null,
    "stdout": "llvm-logical4-551ceb9.stdout",
    "stdout_hash": "89284e63ce27b89a2c283069d92b1f6e40ef7de71f77c29d6c6d31a7",
    "stderr": null,
    "stderr_hash": null,
    "returncode": 0
}