; ModuleID = 'LFortran'
source_filename = "LFortran"

@0 = private unnamed_addr constant [2 x i8] c"1\00", align 1
@1 = private unnamed_addr constant [4 x i8] c"%s\0A\00", align 1
@2 = private unnamed_addr constant [2 x i8] c"2\00", align 1
@3 = private unnamed_addr constant [4 x i8] c"%s\0A\00", align 1
@4 = private unnamed_addr constant [2 x i8] c"3\00", align 1
@5 = private unnamed_addr constant [4 x i8] c"%s\0A\00", align 1
@6 = private unnamed_addr constant [2 x i8] c"4\00", align 1
@7 = private unnamed_addr constant [4 x i8] c"%s\0A\00", align 1
@8 = private unnamed_addr constant [2 x i8] c"1\00", align 1
@9 = private unnamed_addr constant [4 x i8] c"%s\0A\00", align 1
@10 = private unnamed_addr constant [6 x i8] c"2,3,4\00", align 1
@11 = private unnamed_addr constant [4 x i8] c"%s\0A\00", align 1

define i32 @main() {
.entry:
  %i = alloca i32, align 4
  store i32 4, i32* %i, align 4
  %0 = load i32, i32* %i, align 4
  %1 = icmp eq i32 %0, 1
  br i1 %1, label %then, label %else

then:                                             ; preds = %.entry
  call void (i8*, ...) @_lfortran_printf(i8* getelementptr inbounds ([4 x i8], [4 x i8]* @1, i32 0, i32 0), i8* getelementptr inbounds ([2 x i8], [2 x i8]* @0, i32 0, i32 0))
  br label %ifcont11

else:                                             ; preds = %.entry
  %2 = load i32, i32* %i, align 4
  %3 = icmp eq i32 %2, 2
  br i1 %3, label %then1, label %else2

then1:                                            ; preds = %else
  call void (i8*, ...) @_lfortran_printf(i8* getelementptr inbounds ([4 x i8], [4 x i8]* @3, i32 0, i32 0), i8* getelementptr inbounds ([2 x i8], [2 x i8]* @2, i32 0, i32 0))
  br label %ifcont9

else2:                                            ; preds = %else
  %4 = load i32, i32* %i, align 4
  %5 = icmp eq i32 %4, 3
  br i1 %5, label %then3, label %else4

then3:                                            ; preds = %else2
  call void (i8*, ...) @_lfortran_printf(i8* getelementptr inbounds ([4 x i8], [4 x i8]* @5, i32 0, i32 0), i8* getelementptr inbounds ([2 x i8], [2 x i8]* @4, i32 0, i32 0))
  br label %ifcont7

else4:                                            ; preds = %else2
  %6 = load i32, i32* %i, align 4
  %7 = icmp eq i32 %6, 4
  br i1 %7, label %then5, label %else6

then5:                                            ; preds = %else4
  call void (i8*, ...) @_lfortran_printf(i8* getelementptr inbounds ([4 x i8], [4 x i8]* @7, i32 0, i32 0), i8* getelementptr inbounds ([2 x i8], [2 x i8]* @6, i32 0, i32 0))
  br label %ifcont

else6:                                            ; preds = %else4
  br label %ifcont

ifcont:                                           ; preds = %else6, %then5
  %iftmp = phi i32 [ 1, %then5 ], [ 2, %else6 ]
  br label %ifcont7

ifcont7:                                          ; preds = %ifcont, %then3
  %iftmp8 = phi i32 [ 1, %then3 ], [ 2, %ifcont ]
  br label %ifcont9

ifcont9:                                          ; preds = %ifcont7, %then1
  %iftmp10 = phi i32 [ 1, %then1 ], [ 2, %ifcont7 ]
  br label %ifcont11

ifcont11:                                         ; preds = %ifcont9, %then
  %iftmp12 = phi i32 [ 1, %then ], [ 2, %ifcont9 ]
  %8 = load i32, i32* %i, align 4
  %9 = icmp eq i32 %8, 1
  br i1 %9, label %then13, label %else14

then13:                                           ; preds = %ifcont11
  call void (i8*, ...) @_lfortran_printf(i8* getelementptr inbounds ([4 x i8], [4 x i8]* @9, i32 0, i32 0), i8* getelementptr inbounds ([2 x i8], [2 x i8]* @8, i32 0, i32 0))
  br label %ifcont19

else14:                                           ; preds = %ifcont11
  %10 = load i32, i32* %i, align 4
  %11 = icmp eq i32 %10, 2
  %12 = load i32, i32* %i, align 4
  %13 = icmp eq i32 %12, 3
  %14 = add i1 %11, %13
  %15 = load i32, i32* %i, align 4
  %16 = icmp eq i32 %15, 4
  %17 = add i1 %14, %16
  br i1 %17, label %then15, label %else16

then15:                                           ; preds = %else14
  call void (i8*, ...) @_lfortran_printf(i8* getelementptr inbounds ([4 x i8], [4 x i8]* @11, i32 0, i32 0), i8* getelementptr inbounds ([6 x i8], [6 x i8]* @10, i32 0, i32 0))
  br label %ifcont17

else16:                                           ; preds = %else14
  br label %ifcont17

ifcont17:                                         ; preds = %else16, %then15
  %iftmp18 = phi i32 [ 1, %then15 ], [ 2, %else16 ]
  br label %ifcont19

ifcont19:                                         ; preds = %ifcont17, %then13
  %iftmp20 = phi i32 [ 1, %then13 ], [ 2, %ifcont17 ]
  ret i32 0
}

declare void @_lfortran_printf(i8*, ...)

