; ModuleID = 'LFortran'
source_filename = "LFortran"

@0 = private unnamed_addr constant [4 x i8] c"%d\0A\00", align 1
@1 = private unnamed_addr constant [4 x i8] c"%d\0A\00", align 1

define i32 @main() {
.entry:
  %i = alloca i32, align 4
  store i32 5, i32* %i, align 4
  %0 = load i32, i32* %i, align 4
  call void (i8*, ...) @_lfortran_printf(i8* getelementptr inbounds ([4 x i8], [4 x i8]* @0, i32 0, i32 0), i32 %0)
  %1 = load i32, i32* %i, align 4
  %2 = add i32 %1, 1
  call void (i8*, ...) @_lfortran_printf(i8* getelementptr inbounds ([4 x i8], [4 x i8]* @1, i32 0, i32 0), i32 %2)
  ret i32 0
}

declare void @_lfortran_printf(i8*, ...)

