{
    "basename": "llvm-logical3-f56fcf0",
    "cmd": "lfortran --show-llvm {infile} -o {outfile}",
    "infile": "tests/../integration_tests/logical3.f90",
    "infile_hash": "bd67609218f5e13eb7aba50f400a20aaf3490e37b28f198226175b2a",
    "outfile": null,
    "outfile_hash": null,
    "stdout": "llvm-logical3-f56fcf0.stdout",
    "stdout_hash": "54fe2a7d867894613a5a6df88c89f0974d454138e153882ea3077aca",
    "stderr": null,
    "stderr_hash": null,
    "returncode": 0
}