; ModuleID = 'LFortran'
source_filename = "LFortran"

@0 = private unnamed_addr constant [11 x i8] c"%f %lf %f\0A\00", align 1

define i32 @main() {
.entry:
  %v = alloca double, align 8
  %x = alloca float, align 4
  %zero = alloca float, align 4
  store float 0.000000e+00, float* %zero, align 4
  store double 0x3FF0CCCCC0000000, double* %v, align 8
  store float 0x3FF0CCCCC0000000, float* %x, align 4
  %0 = load float, float* %x, align 4
  %1 = fpext float %0 to double
  %2 = load double, double* %v, align 8
  %3 = load float, float* %zero, align 4
  %4 = fpext float %3 to double
  call void (i8*, ...) @_lfortran_printf(i8* getelementptr inbounds ([11 x i8], [11 x i8]* @0, i32 0, i32 0), double %1, double %2, double %4)
  ret i32 0
}

declare void @_lfortran_printf(i8*, ...)

