; ModuleID = 'LFortran'
source_filename = "LFortran"

define float @f() {
.entry:
  %f1 = alloca i32, align 4
  %f2 = alloca float, align 4
  store i32 8, i32* %f1, align 4
  store float 0x4015333340000000, float* %f2, align 4
  %0 = load float, float* %f2, align 4
  ret float %0
}

