{
    "basename": "llvm-subroutines_04-55786fa",
    "cmd": "lfortran --show-llvm {infile} -o {outfile}",
    "infile": "tests/../integration_tests/subroutines_04.f90",
    "infile_hash": "64a0d218db09c2ed45f26712eeca158f8abd11043df4d26101c06498",
    "outfile": null,
    "outfile_hash": null,
    "stdout": "llvm-subroutines_04-55786fa.stdout",
    "stdout_hash": "30d1a00eb460597d1553bcd281a99b82f51515bc844cf6a252db7579",
    "stderr": null,
    "stderr_hash": null,
    "returncode": 0
}