{
    "basename": "llvm-subroutines_02-6f5fa50",
    "cmd": "lfortran --show-llvm {infile} -o {outfile}",
    "infile": "tests/../integration_tests/subroutines_02.f90",
    "infile_hash": "4484a05d86189244a0e0fd3d37b37c88ef5510e22bdd1b38633a1bc8",
    "outfile": null,
    "outfile_hash": null,
    "stdout": "llvm-subroutines_02-6f5fa50.stdout",
    "stdout_hash": "16dc73607632534e783a37b902dd253919d65c34e9bdac5d1029009b",
    "stderr": null,
    "stderr_hash": null,
    "returncode": 0
}