{
    "basename": "pass_global_stmts-global_scope6-278bd63",
    "cmd": "lfortran --pass=global_stmts --show-asr --no-color {infile} -o {outfile}",
    "infile": "tests/global_scope6.f90",
    "infile_hash": "3f2dfa122b78175565b7baa8f4d0417cfb0ed5bbe26bbb5f0f1f6f2e",
    "outfile": null,
    "outfile_hash": null,
    "stdout": "pass_global_stmts-global_scope6-278bd63.stdout",
    "stdout_hash": "858023234672a6eb11f66d252b6358a2e3e0f98f16eb7c1ab996147e",
    "stderr": null,
    "stderr_hash": null,
    "returncode": 0
}